<svg width="71" height="16" viewBox="0 0 71 16" fill="none" xmlns="http://www.w3.org/2000/svg">
<path d="M70.3874 8.36042C70.778 7.9699 70.778 7.33673 70.3874 6.94621L64.0235 0.582247C63.633 0.191723 62.9998 0.191723 62.6093 0.582247C62.2187 0.972772 62.2187 1.60594 62.6093 1.99646L68.2661 7.65331L62.6093 13.3102C62.2187 13.7007 62.2187 14.3339 62.6093 14.7244C62.9998 15.1149 63.633 15.1149 64.0235 14.7244L70.3874 8.36042ZM0.691406 8.65332L69.6803 8.65331L69.6803 6.65331L0.691406 6.65332L0.691406 8.65332Z" fill="#7A2E9E"/>
</svg>
