<svg width="979" height="1618" viewBox="0 0 979 1618" fill="none" xmlns="http://www.w3.org/2000/svg">
<g opacity="0.8" filter="url(#filter0_f_22_2589)">
<path d="M1387.36 1133.31C1629.61 1034.83 1686.92 795.007 1515.36 597.645C1343.79 400.283 1008.32 320.121 766.068 418.597L603.024 484.874C360.767 583.35 303.459 823.175 475.023 1020.54C646.587 1217.9 982.055 1298.06 1224.31 1199.58L1387.36 1133.31Z" fill="url(#paint0_radial_22_2589)"/>
</g>
<defs>
<filter id="filter0_f_22_2589" x="0.0207214" y="0.394531" width="1990.34" height="1617.39" filterUnits="userSpaceOnUse" color-interpolation-filters="sRGB">
<feFlood flood-opacity="0" result="BackgroundImageFix"/>
<feBlend mode="normal" in="SourceGraphic" in2="BackgroundImageFix" result="shape"/>
<feGaussianBlur stdDeviation="188.05" result="effect1_foregroundBlur_22_2589"/>
</filter>
<radialGradient id="paint0_radial_22_2589" cx="0" cy="0" r="1" gradientUnits="userSpaceOnUse" gradientTransform="translate(927.284 885.118) rotate(-154.865) scale(577.129 475.925)">
<stop stop-color="#FFCFCC"/>
<stop offset="1" stop-color="#FFBCF4" stop-opacity="0.31"/>
</radialGradient>
</defs>
</svg>
